{
	"auth": {
		"boou9e6d69309e6d6930": {
			"service": "Cognito",
			"providerPlugin": "awscloudformation"
		}
	},
	"analytics": {
		"boou": {
			"service": "Pinpoint",
			"providerPlugin": "awscloudformation"
		}
	},
	"api": {
		"boou": {
			"service": "AppSync",
			"providerPlugin": "awscloudformation",
			"output": {
				"securityType": "API_KEY"
			}
		}
	}
}