{
    "identityPoolName": "boou9e6d6930_identitypool_9e6d6930",
    "allowUnauthenticatedIdentities": true,
    "lambdaLogPolicy": "boou9e_9e6d6930_lambda_log_policy",
    "openIdLambdaRoleName": "boou9e_9e6d6930_openid_lambda_role",
    "openIdRolePolicy": "boou9e_9e6d6930_openid_pass_role_policy",
    "openIdLambdaIAMPolicy": "boou9e_9e6d6930_openid_lambda_iam_policy",
    "openIdLogPolicy": "boou9e_9e6d6930_openid_lambda_log_policy",
    "userPoolName": "boou9e6d6930_userpool_9e6d6930",
    "autoVerifiedAttributes": [
        "phone_number"
    ],
    "mfaConfiguration": "OPTIONAL",
    "mfaTypes": [
        "SMS Text Message"
    ],
    "roleName": "boou9e9e6d6930_sns-role",
    "roleExternalId": "boou9e9e6d6930_role_external_id",
    "policyName": "boou9e9e6d6930-sns-policy",
    "smsAuthenticationMessage": "Your authentication code is {####}",
    "smsVerificationMessage": "Your verification code is {####}",
    "emailVerificationSubject": "Your verification code",
    "emailVerificationMessage": "Your verification code is {####}",
    "defaultPasswordPolicy": false,
    "passwordPolicyMinLength": 8,
    "passwordPolicyCharacters": [],
    "requiredAttributes": [
        "birthdate",
        "email",
        "name",
        "phone_number"
    ],
    "userpoolClientName": "boou9e9e6d6930_app_client",
    "userpoolClientGenerateSecret": true,
    "userpoolClientRefreshTokenValidity": 30,
    "userpoolClientWriteAttributes": [
        "birthdate",
        "email",
        "name",
        "phone_number"
    ],
    "userpoolClientReadAttributes": [
        "birthdate",
        "email",
        "name",
        "phone_number"
    ],
    "mfaLambdaRole": "boou9e9e6d6930_totp_lambda_role",
    "mfaLambdaLogPolicy": "boou9e9e6d6930_totp_lambda_log_policy",
    "mfaPassRolePolicy": "boou9e9e6d6930_totp_pass_role_policy",
    "mfaLambdaIAMPolicy": "boou9e9e6d6930_totp_lambda_iam_policy",
    "userpoolClientLambdaRole": "boou9e9e6d6930_userpoolclient_lambda_role",
    "userpoolClientLogPolicy": "boou9e9e6d6930_userpoolclient_lambda_log_policy",
    "userpoolClientLambdaPolicy": "boou9e9e6d6930_userpoolclient_lambda_iam_policy",
    "userpoolClientSetAttributes": true,
    "useDefault": "manual",
    "authSelections": "identityPoolAndUserPool",
    "resourceName": "boou9e6d69309e6d6930",
    "thirdPartyAuth": false,
    "usernameAttributes": [
        "phone_number"
    ],
    "hostedUI": false,
    "authRoleName": {
        "Ref": "AuthRoleName"
    },
    "unauthRoleName": {
        "Ref": "UnauthRoleName"
    },
    "authRoleArn": {
        "Fn::GetAtt": [
            "AuthRole",
            "Arn"
        ]
    },
    "unauthRoleArn": {
        "Fn::GetAtt": [
            "UnauthRole",
            "Arn"
        ]
    }
}